{
    "content": [
        {
            "id": 1,
            "firstName": "Christie",
            "lastName": "Gann",
            "email": "cgann0@hostgator.com",
            "gender": "Female",
            "totalClicks": 13469,
            "totalPageViews": 15299,
            "ipAddress": "57.14.195.231"
        },
        {
            "id": 2,
            "firstName": "Hamil",
            "lastName": "Cressey",
            "email": "hcressey1@delicious.com",
            "gender": "Male",
            "totalClicks": 13849,
            "totalPageViews": 11987,
            "ipAddress": "45.225.25.145"
        },
        {
            "id": 3,
            "firstName": "Lottie",
            "lastName": "Dupre",
            "email": "ldupre2@dot.gov",
            "gender": "Female",
            "totalClicks": 6355,
            "totalPageViews": 9482,
            "ipAddress": "254.46.181.79"
        },
        {
            "id": 4,
            "firstName": "Godfry",
            "lastName": "Raoult",
            "email": "graoult3@npr.org",
            "gender": "Male",
            "totalClicks": 14286,
            "totalPageViews": 14224,
            "ipAddress": "133.124.79.194"
        },
        {
            "id": 5,
            "firstName": "Dorrie",
            "lastName": "Beckley",
            "email": "dbeckley4@buzzfeed.com",
            "gender": "Female",
            "totalClicks": 9032,
            "totalPageViews": 9658,
            "ipAddress": "252.217.2.208"
        },
        {
            "id": 6,
            "firstName": "Linc",
            "lastName": "Milella",
            "email": "lmilella5@wikispaces.com",
            "gender": "Male",
            "totalClicks": 8525,
            "totalPageViews": 8825,
            "ipAddress": "175.119.105.110"
        },
        {
            "id": 7,
            "firstName": "Alfie",
            "lastName": "Sullivan",
            "email": "aosullivan6@sphinn.com",
            "gender": "Male",
            "totalClicks": 9688,
            "totalPageViews": 9903,
            "ipAddress": "218.183.185.92"
        },
        {
            "id": 8,
            "firstName": "Urbanus",
            "lastName": "Pittford",
            "email": "upittford7@mit.edu",
            "gender": "Male",
            "totalClicks": 11888,
            "totalPageViews": 11696,
            "ipAddress": "199.232.254.9"
        },
        {
            "id": 9,
            "firstName": "Osbourne",
            "lastName": "Andreacci",
            "email": "oandreacci8@eventbrite.com",
            "gender": "Male",
            "totalClicks": 7710,
            "totalPageViews": 6917,
            "ipAddress": "172.255.67.174"
        },
        {
            "id": 10,
            "firstName": "Dina",
            "lastName": "Sturt",
            "email": "dsturt9@npr.org",
            "gender": "Female",
            "totalClicks": 9458,
            "totalPageViews": 10125,
            "ipAddress": "170.156.106.240"
        }
    ],
    "pageable": {
        "sort": {
            "unsorted": true,
            "sorted": false,
            "empty": true
        },
        "pageNumber": 0,
        "pageSize": 10,
        "offset": 0,
        "paged": true,
        "unpaged": false
    },
    "last": false,
    "totalPages": 100,
    "totalElements": 1000,
    "numberOfElements": 10,
    "first": true,
    "sort": {
        "unsorted": true,
        "sorted": false,
        "empty": true
    },
    "number": 0,
    "size": 10,
    "empty": false
}
