{
    "content": [
        {
            "id": 51,
            "firstName": "Moses",
            "lastName": "Bromwich",
            "email": "mbromwich1e@umich.edu",
            "gender": "Male",
            "totalClicks": 7176,
            "totalPageViews": 6319,
            "ipAddress": "6.68.93.74"
        },
        {
            "id": 52,
            "firstName": "Ange",
            "lastName": "Fairhead",
            "email": "afairhead1f@examiner.com",
            "gender": "Female",
            "totalClicks": 7435,
            "totalPageViews": 8050,
            "ipAddress": "198.242.196.132"
        },
        {
            "id": 53,
            "firstName": "Bobinette",
            "lastName": "Bossingham",
            "email": "bbossingham1g@gravatar.com",
            "gender": "Female",
            "totalClicks": 10131,
            "totalPageViews": 9954,
            "ipAddress": "64.249.96.217"
        },
        {
            "id": 54,
            "firstName": "Pavla",
            "lastName": "Kitchingham",
            "email": "pkitchingham1h@uol.com.br",
            "gender": "Female",
            "totalClicks": 7034,
            "totalPageViews": 6367,
            "ipAddress": "24.209.229.124"
        },
        {
            "id": 55,
            "firstName": "Austin",
            "lastName": "Muneely",
            "email": "amuneely1i@sourceforge.net",
            "gender": "Female",
            "totalClicks": 12866,
            "totalPageViews": 16067,
            "ipAddress": "97.194.33.14"
        },
        {
            "id": 56,
            "firstName": "Chic",
            "lastName": "Bly",
            "email": "cbly1j@mediafire.com",
            "gender": "Male",
            "totalClicks": 13366,
            "totalPageViews": 9755,
            "ipAddress": "219.24.144.105"
        },
        {
            "id": 57,
            "firstName": "Alexa",
            "lastName": "Fyldes",
            "email": "afyldes1k@skype.com",
            "gender": "Female",
            "totalClicks": 12079,
            "totalPageViews": 12527,
            "ipAddress": "170.128.144.218"
        },
        {
            "id": 58,
            "firstName": "Cheryl",
            "lastName": "Hudspeth",
            "email": "chudspeth1l@ibm.com",
            "gender": "Female",
            "totalClicks": 9486,
            "totalPageViews": 10842,
            "ipAddress": "203.70.20.148"
        },
        {
            "id": 59,
            "firstName": "Adele",
            "lastName": "Dickie",
            "email": "adickie1m@techcrunch.com",
            "gender": "Female",
            "totalClicks": 16391,
            "totalPageViews": 16716,
            "ipAddress": "222.162.176.25"
        },
        {
            "id": 60,
            "firstName": "Sancho",
            "lastName": "Chiplin",
            "email": "schiplin1n@cyberchimps.com",
            "gender": "Male",
            "totalClicks": 8292,
            "totalPageViews": 9797,
            "ipAddress": "185.153.116.191"
        }
    ],
    "pageable": {
        "sort": {
            "unsorted": true,
            "sorted": false,
            "empty": true
        },
        "pageNumber": 5,
        "pageSize": 10,
        "offset": 50,
        "paged": true,
        "unpaged": false
    },
    "last": false,
    "totalPages": 100,
    "totalElements": 1000,
    "numberOfElements": 10,
    "first": false,
    "sort": {
        "unsorted": true,
        "sorted": false,
        "empty": true
    },
    "number": 5,
    "size": 10,
    "empty": false
}
